<?xml version="1.0" encoding="UTF-8"?>
<svg width="30px" height="30px" viewBox="0 0 30 30" version="1.1" xmlns="http://www.w3.org/2000/svg" xmlns:xlink="http://www.w3.org/1999/xlink">
    <!-- Generator: Sketch 42 (36781) - http://www.bohemiancoding.com/sketch -->
    <title>arrow-2-left</title>
    <desc>Created with Sketch.</desc>
    <defs></defs>
    <g id="-Icons" stroke="none" stroke-width="1" fill="none" fill-rule="evenodd">
        <g id="arrow-2-left" fill="#221F20">
            <polygon id="Fill-8" points="7 14.863 12.488 18.727 12.488 15.863 23.914 15.863 23.914 13.863 12.488 13.863 12.488 11"></polygon>
        </g>
    </g>
</svg>