<?xml version="1.0" encoding="UTF-8"?>
<svg width="30px" height="30px" viewBox="0 0 30 30" version="1.1" xmlns="http://www.w3.org/2000/svg" xmlns:xlink="http://www.w3.org/1999/xlink">
    <!-- Generator: Sketch 42 (36781) - http://www.bohemiancoding.com/sketch -->
    <title>battery-full-color</title>
    <desc>Created with Sketch.</desc>
    <defs></defs>
    <g id="-Icons" stroke="none" stroke-width="1" fill="none" fill-rule="evenodd">
        <g id="battery-full-color">
            <g id="Group-126" transform="translate(5.000000, 10.000000)">
                <polygon id="Fill-1" fill="#51B748" points="2.313 6.817 16.313 6.817 16.313 2.817 2.313 2.817"></polygon>
                <path d="M1.313,7.817 L17.313,7.817 L17.313,1.817 L1.313,1.817 L1.313,7.817 Z M19.313,2.817 L18.313,2.817 L18.313,1.817 C18.313,1.265 17.866,0.817 17.313,0.817 L1.313,0.817 C0.761,0.817 0.313,1.265 0.313,1.817 L0.313,7.817 C0.313,8.369 0.761,8.817 1.313,8.817 L17.313,8.817 C17.866,8.817 18.313,8.369 18.313,7.817 L18.313,6.817 L19.313,6.817 C19.866,6.817 20.313,6.369 20.313,5.817 L20.313,3.817 C20.313,3.265 19.866,2.817 19.313,2.817 L19.313,2.817 Z" id="Fill-2" fill="#121212"></path>
            </g>
        </g>
    </g>
</svg>