<?xml version="1.0" encoding="UTF-8"?>
<svg width="30px" height="30px" viewBox="0 0 30 30" version="1.1" xmlns="http://www.w3.org/2000/svg" xmlns:xlink="http://www.w3.org/1999/xlink">
    <!-- Generator: Sketch 42 (36781) - http://www.bohemiancoding.com/sketch -->
    <title>calculator</title>
    <desc>Created with Sketch.</desc>
    <defs></defs>
    <g id="-Icons" stroke="none" stroke-width="1" fill="none" fill-rule="evenodd">
        <g id="calculator" fill="#221F20">
            <path d="M9,10 L22,10 L22,6 L9,6 L9,10 Z M19,14 L21,14 L21,12 L19,12 L19,14 Z M19,17 L21,17 L21,15 L19,15 L19,17 Z M19,20 L21,20 L21,18 L19,18 L19,20 Z M16,20 L18,20 L18,18 L16,18 L16,20 Z M16,14 L18,14 L18,12 L16,12 L16,14 Z M16,17 L18,17 L18,15 L16,15 L16,17 Z M16,23 L21,23 L21,21 L16,21 L16,23 Z M13,14 L15,14 L15,12 L13,12 L13,14 Z M13,17 L15,17 L15,15 L13,15 L13,17 Z M13,20 L15,20 L15,18 L13,18 L13,20 Z M13,23 L15,23 L15,21 L13,21 L13,23 Z M10,14 L12,14 L12,12 L10,12 L10,14 Z M10,17 L12,17 L12,15 L10,15 L10,17 Z M10,20 L12,20 L12,18 L10,18 L10,20 Z M10,23 L12,23 L12,21 L10,21 L10,23 Z M8,5 L8,10 L8,25 L23,25 L23,10 L23,5 L8,5 Z" id="Fill-6"></path>
        </g>
    </g>
</svg>