<?xml version="1.0" encoding="UTF-8"?>
<svg width="30px" height="30px" viewBox="0 0 30 30" version="1.1" xmlns="http://www.w3.org/2000/svg" xmlns:xlink="http://www.w3.org/1999/xlink">
    <!-- Generator: Sketch 42 (36781) - http://www.bohemiancoding.com/sketch -->
    <title>cart</title>
    <desc>Created with Sketch.</desc>
    <defs></defs>
    <g id="-Icons" stroke="none" stroke-width="1" fill="none" fill-rule="evenodd">
        <g id="cart" fill="#221F20">
            <path d="M19.869,20.5 C19.869,20.775 19.645,21 19.369,21 C19.093,21 18.869,20.775 18.869,20.5 C18.869,20.225 19.093,20 19.369,20 C19.645,20 19.869,20.225 19.869,20.5 L19.869,20.5 Z M11.369,20.5 C11.369,20.775 11.145,21 10.869,21 C10.593,21 10.369,20.775 10.369,20.5 C10.369,20.225 10.593,20 10.869,20 C11.145,20 11.369,20.225 11.369,20.5 L11.369,20.5 Z M12.04,12 L12.123,13 L10.275,13 L10.116,12 L12.04,12 Z M20.743,13 L18.876,13 L18.96,12 L20.91,12 L20.743,13 Z M18.543,17 L18.626,16 L20.243,16 L20.077,17 L18.543,17 Z M10.75,16 L12.373,16 L12.456,17 L10.908,17 L10.75,16 Z M12.29,15 L10.591,15 L10.433,14 L12.206,14 L12.29,15 Z M15,14 L15,15 L13.293,15 L13.21,14 L15,14 Z M15,13 L13.126,13 L13.043,12 L15,12 L15,13 Z M16,13 L16,12 L17.956,12 L17.873,13 L16,13 Z M15,17 L13.46,17 L13.376,16 L15,16 L15,17 Z M16,16 L17.623,16 L17.54,17 L16,17 L16,16 Z M17.706,15 L16,15 L16,14 L17.79,14 L17.706,15 Z M20.41,15 L18.71,15 L18.793,14 L20.576,14 L20.41,15 Z M21.369,19 L11.225,19 L11.066,18 L20.5,18 C20.744,18 20.953,17.823 20.993,17.582 L21.993,11.582 C22.017,11.437 21.976,11.289 21.881,11.177 C21.786,11.064 21.647,11 21.5,11 L9.958,11 L9.708,9.422 C9.67,9.179 9.46,9 9.214,9 L6.5,9 C6.223,9 6,9.224 6,9.5 C6,9.776 6.223,10 6.5,10 L8.787,10 L10.235,19.146 C9.725,19.385 9.369,19.9 9.369,20.5 C9.369,21.327 10.042,22 10.869,22 C11.696,22 12.369,21.327 12.369,20.5 C12.369,20.324 12.333,20.157 12.277,20 L17.961,20 C17.905,20.157 17.869,20.324 17.869,20.5 C17.869,21.327 18.542,22 19.369,22 C20.196,22 20.869,21.327 20.869,20.5 C20.869,20.324 20.833,20.157 20.777,20 L21.369,20 C21.645,20 21.869,19.776 21.869,19.5 C21.869,19.224 21.645,19 21.369,19 L21.369,19 Z" id="Fill-9"></path>
        </g>
    </g>
</svg>