<?xml version="1.0" encoding="UTF-8"?>
<svg width="30px" height="30px" viewBox="0 0 30 30" version="1.1" xmlns="http://www.w3.org/2000/svg" xmlns:xlink="http://www.w3.org/1999/xlink">
    <!-- Generator: Sketch 42 (36781) - http://www.bohemiancoding.com/sketch -->
    <title>chevron-up-sm</title>
    <desc>Created with Sketch.</desc>
    <defs></defs>
    <g id="-Icons" stroke="none" stroke-width="1" fill="none" fill-rule="evenodd">
        <g id="chevron-up-sm" fill="#221F20">
            <polygon id="Fill-5" points="18.5 17.121 19.414 16.207 15.207 12 11 16.207 11.914 17.121 15.207 13.828"></polygon>
        </g>
    </g>
</svg>