<?xml version="1.0" encoding="UTF-8"?>
<svg width="30px" height="30px" viewBox="0 0 30 30" version="1.1" xmlns="http://www.w3.org/2000/svg" xmlns:xlink="http://www.w3.org/1999/xlink">
    <!-- Generator: Sketch 42 (36781) - http://www.bohemiancoding.com/sketch -->
    <title>circle-filled</title>
    <desc>Created with Sketch.</desc>
    <defs></defs>
    <g id="-Icons" stroke="none" stroke-width="1" fill="none" fill-rule="evenodd">
        <g id="circle-filled" fill="#221F20">
            <path d="M15.001,22.998 C10.589,22.998 7,19.41 7,14.999 C7,10.588 10.589,7 15.001,7 C19.412,7 23,10.588 23,14.999 C23,19.41 19.412,22.998 15.001,22.998" id="Fill-3"></path>
        </g>
    </g>
</svg>