<?xml version="1.0" encoding="UTF-8"?>
<svg width="30px" height="30px" viewBox="0 0 30 30" version="1.1" xmlns="http://www.w3.org/2000/svg" xmlns:xlink="http://www.w3.org/1999/xlink">
    <!-- Generator: Sketch 42 (36781) - http://www.bohemiancoding.com/sketch -->
    <title>edit</title>
    <desc>Created with Sketch.</desc>
    <defs></defs>
    <g id="-Icons" stroke="none" stroke-width="1" fill="none" fill-rule="evenodd">
        <g id="edit" fill="#221F20">
            <g id="Group-19" transform="translate(7.000000, 7.000000)">
                <polygon id="Fill-7" points="11.6318 14.094 1.6318 14.094 1.6318 4.094 7.7208 4.094 8.7208 3.094 0.6318 3.094 0.6318 15.094 12.6318 15.094 12.6318 7.088 11.6318 8.088"></polygon>
                <path d="M14.8013,1.7092 L14.0583,0.9652 C13.5623,0.4702 12.7593,0.4702 12.2633,0.9652 L11.8703,1.3582 L5.5253,7.7042 L3.6323,12.1352 L8.0633,10.2422 L14.4083,3.8972 L14.8013,3.5042 C15.2973,3.0082 15.2973,2.2052 14.8013,1.7092" id="Fill-9"></path>
            </g>
        </g>
    </g>
</svg>