<?xml version="1.0" encoding="UTF-8"?>
<svg width="30px" height="30px" viewBox="0 0 30 30" version="1.1" xmlns="http://www.w3.org/2000/svg" xmlns:xlink="http://www.w3.org/1999/xlink">
    <!-- Generator: Sketch 42 (36781) - http://www.bohemiancoding.com/sketch -->
    <title>gripper-4</title>
    <desc>Created with Sketch.</desc>
    <defs></defs>
    <g id="-Icons" stroke="none" stroke-width="1" fill="none" fill-rule="evenodd">
        <g id="gripper-4" fill="#221F20">
            <g id="Group-34" transform="translate(8.000000, 14.000000)">
                <path d="M6.7812,3.0002 C5.9522,3.0002 5.2812,2.3282 5.2812,1.5002 C5.2812,0.6712 5.9522,0.0002 6.7812,0.0002 C7.6102,0.0002 8.2812,0.6712 8.2812,1.5002 C8.2812,2.3282 7.6102,3.0002 6.7812,3.0002" id="Fill-12"></path>
                <path d="M11.7812,3.0002 C10.9522,3.0002 10.2812,2.3282 10.2812,1.5002 C10.2812,0.6712 10.9522,0.0002 11.7812,0.0002 C12.6102,0.0002 13.2812,0.6712 13.2812,1.5002 C13.2812,2.3282 12.6102,3.0002 11.7812,3.0002" id="Fill-13"></path>
                <path d="M1.7812,3.0002 C2.6102,3.0002 3.2812,2.3282 3.2812,1.5002 C3.2812,0.6712 2.6102,0.0002 1.7812,0.0002 C0.9522,0.0002 0.2812,0.6712 0.2812,1.5002 C0.2812,2.3282 0.9522,3.0002 1.7812,3.0002" id="Fill-14"></path>
            </g>
        </g>
    </g>
</svg>