<?xml version="1.0" encoding="UTF-8"?>
<svg width="30px" height="30px" viewBox="0 0 30 30" version="1.1" xmlns="http://www.w3.org/2000/svg" xmlns:xlink="http://www.w3.org/1999/xlink">
    <!-- Generator: Sketch 42 (36781) - http://www.bohemiancoding.com/sketch -->
    <title>help-filled</title>
    <desc>Created with Sketch.</desc>
    <defs></defs>
    <g id="-Icons" stroke="none" stroke-width="1" fill="none" fill-rule="evenodd">
        <g id="help-filled" fill="#221F20">
            <path d="M15.854,15.696 C15.493,16.311 15.493,16.774 15.505,17.115 L13.781,17.115 C13.733,16.785 13.789,15.925 13.96,15.532 C14.21,14.955 14.741,14.415 15.154,14.032 C15.667,13.557 16.019,13.221 16.019,12.625 C16.019,11.841 15.478,11.518 14.651,11.518 C13.966,11.518 13.479,11.858 13.065,12.253 L11.908,11.196 C12.748,10.294 13.833,9.8 14.982,9.8 C16.958,9.8 18.092,10.82 18.092,12.598 C18.092,14.284 16.426,14.724 15.854,15.696 M14.606,20.2 C13.999,20.2 13.558,19.744 13.558,19.151 C13.558,18.547 13.999,18.09 14.606,18.09 C15.214,18.09 15.667,18.547 15.667,19.151 C15.667,19.744 15.214,20.2 14.606,20.2 M15,7 C10.582,7 7,10.582 7,15 C7,19.419 10.582,23 15,23 C19.418,23 23,19.419 23,15 C23,10.582 19.418,7 15,7" id="Fill-23"></path>
        </g>
    </g>
</svg>