<?xml version="1.0" encoding="UTF-8"?>
<svg width="30px" height="30px" viewBox="0 0 30 30" version="1.1" xmlns="http://www.w3.org/2000/svg" xmlns:xlink="http://www.w3.org/1999/xlink">
    <!-- Generator: Sketch 42 (36781) - http://www.bohemiancoding.com/sketch -->
    <title>list</title>
    <desc>Created with Sketch.</desc>
    <defs></defs>
    <g id="-Icons" stroke="none" stroke-width="1" fill="none" fill-rule="evenodd">
        <g id="list" fill="#020302">
            <g id="Group-48" transform="translate(7.000000, 10.000000)">
                <polygon id="Fill-13" points="4.318 10.0006 14.318 10.0006 14.318 8.0006 4.318 8.0006"></polygon>
                <path d="M1.3179,0.0003 C0.7659,0.0003 0.3179,0.4473 0.3179,1.0003 C0.3179,1.5523 0.7659,2.0003 1.3179,2.0003 C1.8699,2.0003 2.3179,1.5523 2.3179,1.0003 C2.3179,0.4473 1.8699,0.0003 1.3179,0.0003" id="Fill-14"></path>
                <path d="M1.3179,4.0003 C0.7659,4.0003 0.3179,4.4473 0.3179,5.0003 C0.3179,5.5523 0.7659,6.0003 1.3179,6.0003 C1.8699,6.0003 2.3179,5.5523 2.3179,5.0003 C2.3179,4.4473 1.8699,4.0003 1.3179,4.0003" id="Fill-15"></path>
                <path d="M1.3179,8.0003 C0.7659,8.0003 0.3179,8.4473 0.3179,9.0003 C0.3179,9.5523 0.7659,10.0003 1.3179,10.0003 C1.8699,10.0003 2.3179,9.5523 2.3179,9.0003 C2.3179,8.4473 1.8699,8.0003 1.3179,8.0003" id="Fill-16"></path>
                <polygon id="Fill-17" points="4.318 6.0006 12.318 6.0006 12.318 4.0006 4.318 4.0006"></polygon>
                <polygon id="Fill-18" points="4.318 2.0006 16.318 2.0006 16.318 0.0006 4.318 0.0006"></polygon>
            </g>
        </g>
    </g>
</svg>