<?xml version="1.0" encoding="UTF-8"?>
<svg width="30px" height="30px" viewBox="0 0 30 30" version="1.1" xmlns="http://www.w3.org/2000/svg" xmlns:xlink="http://www.w3.org/1999/xlink">
    <!-- Generator: Sketch 42 (36781) - http://www.bohemiancoding.com/sketch -->
    <title>mail-alt</title>
    <desc>Created with Sketch.</desc>
    <defs></defs>
    <g id="-Icons" stroke="none" stroke-width="1" fill="none" fill-rule="evenodd">
        <g id="mail-alt" fill="#020302">
            <g id="Group-30" transform="translate(6.000000, 9.000000)">
                <path d="M1.844,10.539 L17.844,10.539 L17.844,1.467 L1.844,1.467 L1.844,10.539 Z M0.844,11.539 L18.844,11.539 L18.844,0.467 L0.844,0.467 L0.844,11.539 Z" id="Fill-14"></path>
                <polygon id="Fill-16" points="14.844 5.467 16.844 5.467 16.844 2.467 14.844 2.467"></polygon>
                <polygon id="Fill-17" points="3.844 5.467 10.844 5.467 10.844 4.467 3.844 4.467"></polygon>
                <polygon id="Fill-18" points="3.844 6.967 10.844 6.967 10.844 5.967 3.844 5.967"></polygon>
                <polygon id="Fill-19" points="3.844 8.467 7.844 8.467 7.844 7.467 3.844 7.467"></polygon>
            </g>
        </g>
    </g>
</svg>