<?xml version="1.0" encoding="UTF-8"?>
<svg width="30px" height="30px" viewBox="0 0 30 30" version="1.1" xmlns="http://www.w3.org/2000/svg" xmlns:xlink="http://www.w3.org/1999/xlink">
    <!-- Generator: Sketch 42 (36781) - http://www.bohemiancoding.com/sketch -->
    <title>music-note</title>
    <desc>Created with Sketch.</desc>
    <defs></defs>
    <g id="-Icons" stroke="none" stroke-width="1" fill="none" fill-rule="evenodd">
        <g id="music-note" fill="#221F20">
            <path d="M13,9 L13,18.409 C12.581,18.156 12.065,18 11.5,18 C10.119,18 9,18.896 9,20 C9,21.104 10.119,22 11.5,22 C12.881,22 14,21.104 14,20 L14,11.889 L21,11.111 L21,17.417 C20.581,17.159 20.065,17 19.5,17 C18.119,17 17,17.912 17,19.036 C17,20.161 18.119,21.072 19.5,21.072 C20.881,21.072 22,20.161 22,19.036 C22,19.023 21.996,19.012 21.996,19 L22,19 L22,8 L13,9 Z" id="Fill-2"></path>
        </g>
    </g>
</svg>