<?xml version="1.0" encoding="UTF-8"?>
<svg width="30px" height="30px" viewBox="0 0 30 30" version="1.1" xmlns="http://www.w3.org/2000/svg" xmlns:xlink="http://www.w3.org/1999/xlink">
    <!-- Generator: Sketch 42 (36781) - http://www.bohemiancoding.com/sketch -->
    <title>overlap-square-color</title>
    <desc>Created with Sketch.</desc>
    <defs></defs>
    <g id="-Icons" stroke="none" stroke-width="1" fill="none" fill-rule="evenodd">
        <g id="overlap-square-color">
            <g id="Group-146" transform="translate(7.000000, 7.000000)">
                <polygon id="Fill-71" fill="#EB2026" points="4.356 12.526 16.356 12.526 16.356 0.526 4.356 0.526"></polygon>
                <polygon id="Fill-72" fill="#0490CA" points="0.356 16.526 12.356 16.526 12.356 4.526 0.356 4.526"></polygon>
                <polygon id="Fill-73" fill="#66439A" points="4.356 12.526 12.356 12.526 12.356 4.526 4.356 4.526"></polygon>
            </g>
        </g>
    </g>
</svg>