<?xml version="1.0" encoding="UTF-8"?>
<svg width="30px" height="30px" viewBox="0 0 30 30" version="1.1" xmlns="http://www.w3.org/2000/svg" xmlns:xlink="http://www.w3.org/1999/xlink">
    <!-- Generator: Sketch 42 (36781) - http://www.bohemiancoding.com/sketch -->
    <title>pointer-left</title>
    <desc>Created with Sketch.</desc>
    <defs></defs>
    <g id="-Icons" stroke="none" stroke-width="1" fill="none" fill-rule="evenodd">
        <g id="pointer-left" fill="#221F20">
            <polygon id="Fill-3" points="23.414 13.707 10.828 13.707 14.121 10.414 12.707 9 7 14.707 12.707 20.414 14.121 19 10.828 15.707 23.414 15.707"></polygon>
        </g>
    </g>
</svg>