<?xml version="1.0" encoding="UTF-8"?>
<svg width="30px" height="30px" viewBox="0 0 30 30" version="1.1" xmlns="http://www.w3.org/2000/svg" xmlns:xlink="http://www.w3.org/1999/xlink">
    <!-- Generator: Sketch 42 (36781) - http://www.bohemiancoding.com/sketch -->
    <title>pointer-down</title>
    <desc>Created with Sketch.</desc>
    <defs></defs>
    <g id="-Icons" stroke="none" stroke-width="1" fill="none" fill-rule="evenodd">
        <g id="pointer-down" fill="#221F20">
            <polygon id="Fill-4" points="13.707 7 13.707 19.587 10.414 16.293 9 17.707 14.707 23.414 20.414 17.707 19 16.293 15.707 19.587 15.707 7"></polygon>
        </g>
    </g>
</svg>