<?xml version="1.0" encoding="UTF-8"?>
<svg width="30px" height="30px" viewBox="0 0 30 30" version="1.1" xmlns="http://www.w3.org/2000/svg" xmlns:xlink="http://www.w3.org/1999/xlink">
    <!-- Generator: Sketch 42 (36781) - http://www.bohemiancoding.com/sketch -->
    <title>print</title>
    <desc>Created with Sketch.</desc>
    <defs></defs>
    <g id="-Icons" stroke="none" stroke-width="1" fill="none" fill-rule="evenodd">
        <g id="print" fill="#221F20">
            <g id="Group-21" transform="translate(7.000000, 7.000000)">
                <path d="M15.7373,10.0001 L15.2373,10.0001 L15.2373,6.5001 C15.2373,6.2241 15.0133,6.0001 14.7373,6.0001 L13.2373,6.0001 L13.2373,10.0001 L3.2373,10.0001 L3.2373,6.0001 L1.7373,6.0001 C1.4613,6.0001 1.2373,6.2241 1.2373,6.5001 L1.2373,10.0001 L0.7373,10.0001 C0.4613,10.0001 0.2373,10.2241 0.2373,10.5001 L0.2373,14.0001 L3.2373,14.0001 L3.2373,12.0001 L13.2373,12.0001 L13.2373,14.0001 L16.2373,14.0001 L16.2373,10.5001 C16.2373,10.2241 16.0133,10.0001 15.7373,10.0001 Z" id="Fill-7"></path>
                <polygon id="Fill-9" points="4.237 9.0004 12.237 9.0004 12.237 0.0004 4.237 0.0004"></polygon>
                <polygon id="Fill-11" points="4.237 16.0004 12.237 16.0004 12.237 13.0004 4.237 13.0004"></polygon>
            </g>
        </g>
    </g>
</svg>