<?xml version="1.0" encoding="UTF-8"?>
<svg width="30px" height="30px" viewBox="0 0 30 30" version="1.1" xmlns="http://www.w3.org/2000/svg" xmlns:xlink="http://www.w3.org/1999/xlink">
    <!-- Generator: Sketch 42 (36781) - http://www.bohemiancoding.com/sketch -->
    <title>profile</title>
    <desc>Created with Sketch.</desc>
    <defs></defs>
    <g id="-Icons" stroke="none" stroke-width="1" fill="none" fill-rule="evenodd">
        <g id="profile" fill="#020302">
            <path d="M20.405,15.401 C20.636,15.446 20.647,15.64 20.696,15.808 C20.738,15.954 20.713,16.076 20.596,16.185 C20.401,16.368 20.338,16.586 20.393,16.859 C20.474,17.252 20.428,17.637 20.222,17.992 C20.121,18.165 19.975,18.291 19.782,18.35 C19.2,18.529 18.204,18.553 17.619,18.721 C16.796,18.968 15.766,22.178 15.794,22.755 C15.822,23.332 17.502,24.573 16.988,24.932 C16.094,25.558 12.015,21.586 10.823,21.586 C10.227,21.586 9.259,22.057 8.942,21.74 C8.374,21.172 11.253,17.702 11.253,17.056 C10.731,16.535 8,14.136 8,10.357 C8,7.183 11.022,5 13.833,5 C15.481,5.036 20.325,5.741 20.325,10.276 C20.319,10.391 20.235,10.71 20.215,10.753 C20.11,10.976 20.155,11.167 20.313,11.355 C20.66,11.768 21.498,12.827 21.58,12.935 C21.659,13.04 21.655,13.152 21.576,13.248 C21.491,13.35 21.079,13.673 20.973,13.745 C20.795,13.864 20.762,14.004 20.823,14.208 C20.887,14.427 20.94,14.653 20.967,14.88 C20.993,15.174 20.566,15.299 20.405,15.401" id="Fill-2"></path>
        </g>
    </g>
</svg>