<?xml version="1.0" encoding="UTF-8"?>
<svg width="30px" height="30px" viewBox="0 0 30 30" version="1.1" xmlns="http://www.w3.org/2000/svg" xmlns:xlink="http://www.w3.org/1999/xlink">
    <!-- Generator: Sketch 42 (36781) - http://www.bohemiancoding.com/sketch -->
    <title>save</title>
    <desc>Created with Sketch.</desc>
    <defs></defs>
    <g id="-Icons" stroke="none" stroke-width="1" fill="none" fill-rule="evenodd">
        <g id="save" fill="#221F20">
            <g id="Group-22" transform="translate(8.000000, 8.000000)">
                <path d="M13.0303,13.0001 L1.0303,13.0001 L1.0303,1.0001 L9.6163,1.0001 L13.0303,4.4141 L13.0303,13.0001 Z M10.0303,0.0001 L0.0303,0.0001 L0.0303,14.0001 L14.0303,14.0001 L14.0303,4.0001 L10.0303,0.0001 Z" id="Fill-5"></path>
                <polygon id="Fill-6" points="2.0303 6.0001 7.0303 6.0001 7.0303 4.3771 8.0303 4.3771 8.0303 6.0001 9.0303 6.0001 9.0303 3.0001 2.0303 3.0001"></polygon>
            </g>
        </g>
    </g>
</svg>