<?xml version="1.0" encoding="UTF-8"?>
<svg width="30px" height="30px" viewBox="0 0 30 30" version="1.1" xmlns="http://www.w3.org/2000/svg" xmlns:xlink="http://www.w3.org/1999/xlink">
    <!-- Generator: Sketch 42 (36781) - http://www.bohemiancoding.com/sketch -->
    <title>search-map</title>
    <desc>Created with Sketch.</desc>
    <defs>
        <polygon id="path-1" points="11.5771 0.097 0.5771 0.097 0.5771 11.0967 11.5771 11.0967 11.5771 0.097"></polygon>
    </defs>
    <g id="-Icons" stroke="none" stroke-width="1" fill="none" fill-rule="evenodd">
        <g id="search-map">
            <g id="Group-84" transform="translate(5.000000, 5.000000)">
                <path d="M13.7041,14.6237 C13.4851,14.6707 13.2821,14.9827 13.0171,14.1077 C12.8571,13.5847 13.1681,12.9747 13.4271,12.5537 C12.6971,12.8377 11.9061,12.9997 11.0771,12.9997 C9.7441,12.9997 8.5041,12.5957 7.4721,11.9037 C7.3381,12.0487 7.2191,12.1767 7.1571,12.2327 C6.9701,12.4047 7.4531,13.0217 7.2041,13.1237 C6.8061,13.2867 6.8921,12.5767 6.6881,12.4207 C6.4851,12.2647 5.5791,12.4357 5.3911,12.7327 C5.2951,12.8867 5.0871,13.4177 5.3131,13.5927 C5.5261,13.7567 6.1661,13.3407 6.3601,13.5927 C6.4531,13.9017 7.2201,14.7647 7.4701,14.8577 C7.7201,14.9517 8.4701,14.7487 8.8131,14.7327 C9.1571,14.7177 9.6421,15.1547 9.8451,15.1707 C10.0481,15.1857 10.0791,15.8737 10.3131,15.8427 C10.5481,15.8107 11.4851,16.0147 11.5481,16.2327 C11.6101,16.4517 11.2511,16.6867 11.1411,16.7327 C11.0321,16.7797 10.9541,17.6867 10.8131,17.7327 C10.6731,17.7797 10.1261,17.7327 10.0631,17.9677 C10.0011,18.2017 8.9381,19.0607 8.8131,19.1237 C8.7431,19.1587 8.0121,18.8617 8.0791,18.6707 C8.1731,18.4047 8.2351,17.6397 7.8921,17.4987 C7.5481,17.3577 6.9851,16.6397 6.9701,16.3427 C6.9541,16.0457 7.3921,15.3267 7.3131,15.1707 C7.2351,15.0147 6.7041,15.1237 6.5481,14.9207 C6.3921,14.7177 5.9701,14.3897 5.6731,14.3267 C5.3761,14.2647 4.6101,14.1237 4.5161,13.7647 C4.4231,13.4047 3.2351,11.9047 3.0631,11.5297 C2.8911,11.1547 3.3911,10.0297 3.4701,9.7327 C3.5481,9.4367 3.4541,8.2957 3.2201,8.0767 C2.9851,7.8577 2.3131,8.7017 2.1261,8.5927 C2.0101,8.5247 2.0611,8.2757 2.1581,8.0167 C2.8301,7.2817 3.6591,6.6937 4.5871,6.2967 C4.5961,6.0267 4.6211,5.7617 4.6621,5.4997 L0.5771,5.4997 L0.5771,19.4997 L14.5771,19.4997 L14.5771,14.7677 C14.5771,14.7677 13.8081,14.6017 13.7041,14.6237" id="Fill-8" fill="#221F20"></path>
                <path d="M20.4307,14.4396 L16.3187,10.3286 C15.9227,10.8696 15.4457,11.3456 14.9047,11.7426 L19.0167,15.8536 C19.2117,16.0486 19.5287,16.0486 19.7237,15.8536 L20.4307,15.1466 C20.6257,14.9516 20.6257,14.6346 20.4307,14.4396" id="Fill-10" fill="#221F20"></path>
                <g id="Group-14" transform="translate(5.000000, 0.903500)">
                    <mask id="mask-2" fill="white">
                        <use xlink:href="#path-1"></use>
                    </mask>
                    <g id="Clip-13"></g>
                    <path d="M6.0771,1.0967 C8.5581,1.0967 10.5771,3.1157 10.5771,5.5967 C10.5771,8.0777 8.5581,10.0967 6.0771,10.0967 C3.5961,10.0967 1.5771,8.0777 1.5771,5.5967 C1.5771,3.1157 3.5961,1.0967 6.0771,1.0967 M6.0771,11.0967 C9.1091,11.0967 11.5771,8.6287 11.5771,5.5967 C11.5771,2.5637 9.1091,0.0967 6.0771,0.0967 C3.0451,0.0967 0.5771,2.5637 0.5771,5.5967 C0.5771,8.6287 3.0451,11.0967 6.0771,11.0967" id="Fill-12" fill="#221F20" mask="url(#mask-2)"></path>
                </g>
            </g>
        </g>
    </g>
</svg>