<?xml version="1.0" encoding="UTF-8"?>
<svg width="30px" height="30px" viewBox="0 0 30 30" version="1.1" xmlns="http://www.w3.org/2000/svg" xmlns:xlink="http://www.w3.org/1999/xlink">
    <!-- Generator: Sketch 42 (36781) - http://www.bohemiancoding.com/sketch -->
    <title>select</title>
    <desc>Created with Sketch.</desc>
    <defs></defs>
    <g id="-Icons" stroke="none" stroke-width="1" fill="none" fill-rule="evenodd">
        <g id="select" fill="#221F20">
            <path d="M15.0002,17.5606 L11.7932,14.3536 L12.7072,13.4396 L15.0002,15.7326 L17.2932,13.4396 L18.2072,14.3536 L15.0002,17.5606 Z M19.2852,8.9996 L10.7142,8.9996 C9.7682,8.9996 9.0002,9.7676 9.0002,10.7136 L9.0002,19.2866 C9.0002,20.2326 9.7682,20.9996 10.7142,20.9996 L19.2852,20.9996 C20.2322,20.9996 21.0002,20.2326 21.0002,19.2866 L21.0002,10.7136 C21.0002,9.7676 20.2322,8.9996 19.2852,8.9996 L19.2852,8.9996 Z" id="Fill-1"></path>
        </g>
    </g>
</svg>