<?xml version="1.0" encoding="UTF-8"?>
<svg width="30px" height="30px" viewBox="0 0 30 30" version="1.1" xmlns="http://www.w3.org/2000/svg" xmlns:xlink="http://www.w3.org/1999/xlink">
    <!-- Generator: Sketch 42 (36781) - http://www.bohemiancoding.com/sketch -->
    <title>sort-alt</title>
    <desc>Created with Sketch.</desc>
    <defs></defs>
    <g id="-Icons" stroke="none" stroke-width="1" fill="none" fill-rule="evenodd">
        <g id="sort-alt" fill="#221F20">
            <g id="Group-12" transform="translate(6.000000, 6.000000)">
                <polygon id="Fill-25" points="6.3862 14.1725 6.3862 3.0005 4.3862 3.0005 4.3862 14.1725 2.0932 11.8795 0.6792 13.2935 5.3862 18.0005 10.0932 13.2935 8.6792 11.8795"></polygon>
                <polygon id="Fill-26" points="13.3862 0.0006 8.6792 4.7076 10.0932 6.1216 12.3862 3.8286 12.3862 15.0006 14.3862 15.0006 14.3862 3.8286 16.6792 6.1216 18.0932 4.7076"></polygon>
            </g>
        </g>
    </g>
</svg>