<?xml version="1.0" encoding="UTF-8"?>
<svg width="30px" height="30px" viewBox="0 0 30 30" version="1.1" xmlns="http://www.w3.org/2000/svg" xmlns:xlink="http://www.w3.org/1999/xlink">
    <!-- Generator: Sketch 42 (36781) - http://www.bohemiancoding.com/sketch -->
    <title>tablet-disconnected</title>
    <desc>Created with Sketch.</desc>
    <defs></defs>
    <g id="-Icons" stroke="none" stroke-width="1" fill="none" fill-rule="evenodd">
        <g id="tablet-disconnected" fill="#020302">
            <g id="Group-104" transform="translate(6.000000, 8.000000)">
                <polygon id="Fill-1" points="5.8779 11.1989 8.1709 8.9059 10.4639 11.1989 11.8779 9.7849 9.5849 7.4919 11.8779 5.1989 10.4639 3.7849 8.1709 6.0779 5.8779 3.7849 4.4639 5.1989 6.7569 7.4919 4.4639 9.7849"></polygon>
                <path d="M16.6709,8.2751 C16.2559,8.2751 15.9209,7.9391 15.9209,7.5251 C15.9209,7.1111 16.2559,6.7751 16.6709,6.7751 C17.0849,6.7751 17.4209,7.1111 17.4209,7.5251 C17.4209,7.9391 17.0849,8.2751 16.6709,8.2751 Z M1.1709,13.4921 L15.1709,13.4921 L15.1709,1.4921 L1.1709,1.4921 L1.1709,13.4921 Z M17.1709,0.4921 L1.1709,0.4921 C0.6189,0.4921 0.1709,0.9401 0.1709,1.4921 L0.1709,13.4921 C0.1709,14.0441 0.6189,14.4921 1.1709,14.4921 L17.1709,14.4921 C17.7229,14.4921 18.1709,14.0441 18.1709,13.4921 L18.1709,1.4921 C18.1709,0.9401 17.7229,0.4921 17.1709,0.4921 Z" id="Fill-2"></path>
            </g>
        </g>
    </g>
</svg>