<?xml version="1.0" encoding="UTF-8"?>
<svg width="30px" height="30px" viewBox="0 0 30 30" version="1.1" xmlns="http://www.w3.org/2000/svg" xmlns:xlink="http://www.w3.org/1999/xlink">
    <!-- Generator: Sketch 42 (36781) - http://www.bohemiancoding.com/sketch -->
    <title>trash</title>
    <desc>Created with Sketch.</desc>
    <defs></defs>
    <g id="-Icons" stroke="none" stroke-width="1" fill="none" fill-rule="evenodd">
        <g id="trash" fill="#221F20">
            <g id="Group-39" transform="translate(8.000000, 7.000000)">
                <path d="M5.57,1.9997 L9.57,1.9997 L9.57,0.9997 L5.57,0.9997 L5.57,1.9997 Z M14.07,1.9997 L10.57,1.9997 L10.57,0.9997 C10.57,0.4477 10.122,-0.0003 9.57,-0.0003 L5.57,-0.0003 C5.018,-0.0003 4.57,0.4477 4.57,0.9997 L4.57,1.9997 L1.07,1.9997 C0.793,1.9997 0.57,2.2237 0.57,2.4997 L0.57,3.4997 C0.57,3.7757 0.793,3.9997 1.07,3.9997 L14.07,3.9997 C14.346,3.9997 14.57,3.7757 14.57,3.4997 L14.57,2.4997 C14.57,2.2237 14.346,1.9997 14.07,1.9997 L14.07,1.9997 Z" id="Fill-8"></path>
                <path d="M11.7051,14.9998 L9.7521,14.9998 L10.5851,4.9998 L9.5541,4.9998 L8.7211,14.9998 L6.4181,14.9998 L5.5851,4.9998 L4.5541,4.9998 L5.3871,14.9998 L3.4341,14.9998 L2.6011,4.9998 L1.5701,4.9998 L2.4931,16.0828 C2.5371,16.6018 2.9701,16.9998 3.4901,16.9998 L11.6491,16.9998 C12.1691,16.9998 12.6031,16.6018 12.6461,16.0828 L13.5701,4.9998 L12.5381,4.9998 L11.7051,14.9998 Z" id="Fill-10"></path>
            </g>
        </g>
    </g>
</svg>