<?xml version="1.0" encoding="UTF-8"?>
<svg width="30px" height="30px" viewBox="0 0 30 30" version="1.1" xmlns="http://www.w3.org/2000/svg" xmlns:xlink="http://www.w3.org/1999/xlink">
    <!-- Generator: Sketch 42 (36781) - http://www.bohemiancoding.com/sketch -->
    <title>upload</title>
    <desc>Created with Sketch.</desc>
    <defs></defs>
    <g id="-Icons" stroke="none" stroke-width="1" fill="none" fill-rule="evenodd">
        <g id="upload" fill="#221F20">
            <g id="Group-24" transform="translate(7.000000, 7.000000)">
                <polygon id="Fill-3" points="7.2373 3.8282 7.2373 12.0002 9.2373 12.0002 9.2373 3.8282 11.5303 6.1212 12.9443 4.7072 8.2373 0.0002 3.5303 4.7072 4.9443 6.1212"></polygon>
                <polygon id="Fill-4" points="0.237 16.0004 16.237 16.0004 16.237 14.0004 0.237 14.0004"></polygon>
            </g>
        </g>
    </g>
</svg>