<?xml version="1.0" encoding="UTF-8"?>
<svg width="30px" height="30px" viewBox="0 0 30 30" version="1.1" xmlns="http://www.w3.org/2000/svg" xmlns:xlink="http://www.w3.org/1999/xlink">
    <!-- Generator: Sketch 42 (36781) - http://www.bohemiancoding.com/sketch -->
    <title>wifi</title>
    <desc>Created with Sketch.</desc>
    <defs></defs>
    <g id="-Icons" stroke="none" stroke-width="1" fill="none" fill-rule="evenodd">
        <g id="wifi" fill="#221F20">
            <g id="Group-99" transform="translate(5.000000, 8.000000)">
                <path d="M10.6309,2.267 C13.8349,2.267 16.8489,3.515 19.1149,5.782 L19.1159,5.782 L20.5299,4.368 L20.5299,4.368 C17.8849,1.723 14.3689,0.267 10.6309,0.267 C6.8949,0.267 3.3799,1.723 0.7309,4.367 L2.1459,5.781 C4.4159,3.515 7.4289,2.267 10.6309,2.267" id="Fill-9"></path>
                <path d="M10.6309,6.267 C12.7669,6.267 14.7759,7.099 16.2869,8.611 L17.7019,7.197 L17.7009,7.196 C15.8119,5.307 13.3009,4.267 10.6309,4.267 C7.9619,4.267 5.4509,5.307 3.5599,7.196 L4.9739,8.61 C6.4869,7.1 8.4959,6.267 10.6309,6.267" id="Fill-11"></path>
                <path d="M10.6309,10.267 C11.6989,10.267 12.7029,10.683 13.4589,11.439 L14.8729,10.025 C13.7389,8.891 12.2339,8.267 10.6309,8.267 C9.0289,8.267 7.5229,8.891 6.3879,10.024 L7.8019,11.438 C8.5589,10.683 9.5639,10.267 10.6309,10.267" id="Fill-13"></path>
                <path d="M12.0449,12.853 L12.0449,12.853 C11.2639,12.072 9.9979,12.072 9.2169,12.853 L10.6309,14.267 L12.0449,12.853 Z" id="Fill-15"></path>
            </g>
        </g>
    </g>
</svg>