<?xml version="1.0" encoding="UTF-8"?>
<svg width="30px" height="30px" viewBox="0 0 30 30" version="1.1" xmlns="http://www.w3.org/2000/svg" xmlns:xlink="http://www.w3.org/1999/xlink">
    <!-- Generator: Sketch 42 (36781) - http://www.bohemiancoding.com/sketch -->
    <title>yes-no</title>
    <desc>Created with Sketch.</desc>
    <defs></defs>
    <g id="-Icons" stroke="none" stroke-width="1" fill="none" fill-rule="evenodd">
        <g id="yes-no">
            <g id="Page-1" transform="translate(8.000000, 6.000000)">
                <polygon id="Fill-1" fill="#020302" points="13.0356 10.3967 13.0356 14.7237 10.4656 10.3967 9.1876 10.3967 9.1876 17.3957 10.4656 17.3957 10.4656 13.0367 13.0356 17.3957 14.3126 17.3957 14.3126 10.3967"></polygon>
                <polygon id="Fill-2" fill="#020302" points="3.5172 1.3976 2.4062 3.8746 1.2952 1.3976 0.0002 1.3976 1.7332 5.3976 1.7332 8.3956 3.0792 8.3956 3.0792 5.3976 4.8112 1.3976"></polygon>
                <polygon id="Fill-3" fill="#221F20" points="11.5821 -0.0001 0.5821 17.4009 1.4261 17.9359 1.4281 17.9359 12.4281 0.5349"></polygon>
            </g>
        </g>
    </g>
</svg>